digraph "Tank.h"
{
 // LATEX_PDF_SIZE
  edge [fontname="Helvetica",fontsize="10",labelfontname="Helvetica",labelfontsize="10"];
  node [fontname="Helvetica",fontsize="10",shape=record];
  Node1 [label="Tank.h",height=0.2,width=0.4,color="black", fillcolor="grey75", style="filled", fontcolor="black",tooltip=" "];
  Node1 -> Node2 [dir="back",color="midnightblue",fontsize="10",style="solid",fontname="Helvetica"];
  Node2 [label="Engine.h",height=0.2,width=0.4,color="black", fillcolor="white", style="filled",URL="$_engine_8h.html",tooltip=" "];
  Node2 -> Node3 [dir="back",color="midnightblue",fontsize="10",style="solid",fontname="Helvetica"];
  Node3 [label="Engine.cpp",height=0.2,width=0.4,color="black", fillcolor="white", style="filled",URL="$_engine_8cpp.html",tooltip=" "];
  Node2 -> Node4 [dir="back",color="midnightblue",fontsize="10",style="solid",fontname="Helvetica"];
  Node4 [label="File.cpp",height=0.2,width=0.4,color="black", fillcolor="white", style="filled",URL="$_file_8cpp.html",tooltip=" "];
  Node1 -> Node4 [dir="back",color="midnightblue",fontsize="10",style="solid",fontname="Helvetica"];
  Node1 -> Node5 [dir="back",color="midnightblue",fontsize="10",style="solid",fontname="Helvetica"];
  Node5 [label="Tank.cpp",height=0.2,width=0.4,color="black", fillcolor="white", style="filled",URL="$_tank_8cpp.html",tooltip=" "];
}
